^G:\LEDOSSIERDEAIRMAN\DEV\PROJECTS\ENGINE\COMPONENTS\GLEW\SRC\GLEWINFO.C
G:\LEDOSSIERDEAIRMAN\DEV\PROJECTS\ENGINE\COMPONENTS\GLEW\BUILD\VC6\STATIC\DEBUG\VC141.PDB
G:\LEDOSSIERDEAIRMAN\DEV\PROJECTS\ENGINE\COMPONENTS\GLEW\BUILD\VC6\STATIC\DEBUG\GLEWINFO.OBJ
