^G:\LEDOSSIERDEAIRMAN\DEV\PROJECTS\ENGINE\COMPONENTS\GLEW\BUILD\VC6\STATIC\DEBUG\GLEWINFO.OBJ|G:\LEDOSSIERDEAIRMAN\DEV\PROJECTS\ENGINE\COMPONENTS\GLEW\BUILD\VC6\STATIC\DEBUG\GLEWINFO.RES|G:\LEDOSSIERDEAIRMAN\DEV\PROJECTS\ENGINE\COMPONENTS\GLEW\LIB\GLEW32SD.LIB
G:\LEDOSSIERDEAIRMAN\DEV\PROJECTS\ENGINE\COMPONENTS\GLEW\BIN\GLEWINFOD.EXE
G:\LEDOSSIERDEAIRMAN\DEV\PROJECTS\ENGINE\COMPONENTS\GLEW\BIN\GLEWINFO.PDB
