^G:\LEDOSSIERDEAIRMAN\DEV\PROJECTS\ENGINE\COMPONENTS\GLEW\BUILD\VC12\BIN\DEBUG\X86\GLEW_SHARED\GLEW.OBJ|G:\LEDOSSIERDEAIRMAN\DEV\PROJECTS\ENGINE\COMPONENTS\GLEW\BUILD\VC12\BIN\DEBUG\X86\GLEW_SHARED\GLEW.RES
G:\WINDOWS\GLOBALIZATION\SORTING\SORTDEFAULT.NLS
G:\PROGRAM FILES (X86)\WINDOWS KITS\8.1\LIB\WINV6.3\UM\X86\OPENGL32.LIB
G:\PROGRAM FILES (X86)\WINDOWS KITS\8.1\LIB\WINV6.3\UM\X86\KERNEL32.LIB
G:\PROGRAM FILES (X86)\WINDOWS KITS\8.1\LIB\WINV6.3\UM\X86\USER32.LIB
G:\PROGRAM FILES (X86)\WINDOWS KITS\8.1\LIB\WINV6.3\UM\X86\GDI32.LIB
G:\PROGRAM FILES (X86)\WINDOWS KITS\8.1\LIB\WINV6.3\UM\X86\WINSPOOL.LIB
G:\PROGRAM FILES (X86)\WINDOWS KITS\8.1\LIB\WINV6.3\UM\X86\COMDLG32.LIB
G:\PROGRAM FILES (X86)\WINDOWS KITS\8.1\LIB\WINV6.3\UM\X86\ADVAPI32.LIB
G:\PROGRAM FILES (X86)\WINDOWS KITS\8.1\LIB\WINV6.3\UM\X86\SHELL32.LIB
G:\PROGRAM FILES (X86)\WINDOWS KITS\8.1\LIB\WINV6.3\UM\X86\OLE32.LIB
G:\PROGRAM FILES (X86)\WINDOWS KITS\8.1\LIB\WINV6.3\UM\X86\OLEAUT32.LIB
G:\PROGRAM FILES (X86)\WINDOWS KITS\8.1\LIB\WINV6.3\UM\X86\UUID.LIB
G:\PROGRAM FILES (X86)\WINDOWS KITS\8.1\LIB\WINV6.3\UM\X86\ODBC32.LIB
G:\PROGRAM FILES (X86)\WINDOWS KITS\8.1\LIB\WINV6.3\UM\X86\ODBCCP32.LIB
G:\LEDOSSIERDEAIRMAN\DEV\PROJECTS\ENGINE\COMPONENTS\GLEW\BUILD\VC12\BIN\DEBUG\X86\GLEW_SHARED\GLEW.RES
G:\LEDOSSIERDEAIRMAN\DEV\PROJECTS\ENGINE\COMPONENTS\GLEW\BUILD\VC12\BIN\DEBUG\X86\GLEW_SHARED\GLEW.OBJ
G:\PROGRAM FILES (X86)\MICROSOFT VISUAL STUDIO\2017\COMMUNITY\VC\TOOLS\MSVC\14.10.25017\LIB\X86\MSVCRTD.LIB
G:\PROGRAM FILES (X86)\MICROSOFT VISUAL STUDIO\2017\COMMUNITY\VC\TOOLS\MSVC\14.10.25017\LIB\X86\OLDNAMES.LIB
G:\PROGRAM FILES (X86)\MICROSOFT VISUAL STUDIO\2017\COMMUNITY\VC\TOOLS\MSVC\14.10.25017\LIB\X86\VCRUNTIMED.LIB
G:\PROGRAM FILES (X86)\WINDOWS KITS\10\LIB\10.0.10240.0\UCRT\X86\UCRTD.LIB
G:\WINDOWS\SYSTEM32\TZRES.DLL
G:\PROGRAM FILES (X86)\MICROSOFT VISUAL STUDIO\2017\COMMUNITY\VC\TOOLS\MSVC\14.10.25017\BIN\HOSTX86\X86\1033\LINKUI.DLL
G:\PROGRAM FILES (X86)\WINDOWS KITS\8.1\BIN\X86\RC.EXE
G:\PROGRAM FILES (X86)\MICROSOFT VISUAL STUDIO\2017\COMMUNITY\VC\TOOLS\MSVC\14.10.25017\BIN\HOSTX86\X86\CVTRES.EXE
