^G:\LEDOSSIERDEAIRMAN\DEV\PROJECTS\ENGINE\COMPONENTS\GLEW\BUILD\VC12\BIN\DEBUG\X86\GLEW_SHARED\GLEW.OBJ|G:\LEDOSSIERDEAIRMAN\DEV\PROJECTS\ENGINE\COMPONENTS\GLEW\BUILD\VC12\BIN\DEBUG\X86\GLEW_SHARED\GLEW.RES
G:\LEDOSSIERDEAIRMAN\DEV\PROJECTS\ENGINE\COMPONENTS\GLEW\BUILD\VC12\BIN\DEBUG\X86\GLEW32D.DLL
G:\LEDOSSIERDEAIRMAN\DEV\PROJECTS\ENGINE\COMPONENTS\GLEW\BUILD\VC12\BIN\DEBUG\X86\GLEW32D.PDB
